<?xml version="1.0" encoding="utf-8"?>
<svg xmlns="http://www.w3.org/2000/svg" xmlns:xlink="http://www.w3.org/1999/xlink" style="margin: auto; background: none; display: block; shape-rendering: auto;" width="20px" height="20px" viewBox="0 0 100 100" preserveAspectRatio="xMidYMid">
<circle cx="50" cy="50" r="0" fill="none" stroke="#88ee88" stroke-width="10">
  <animate attributeName="r" repeatCount="indefinite" dur="2.22s" values="0;50" keyTimes="0;1" keySplines="0 0.2 0.8 1" calcMode="spline" begin="0s"></animate>
  <animate attributeName="opacity" repeatCount="indefinite" dur="2.22s" values="1;0" keyTimes="0;1" keySplines="0.2 0 0.8 1" calcMode="spline" begin="0s"></animate>
</circle><circle cx="50" cy="50" r="0" fill="none" stroke="#ffffff" stroke-width="10">
  <animate attributeName="r" repeatCount="indefinite" dur="2.22s" values="0;50" keyTimes="0;1" keySplines="0 0.2 0.8 1" calcMode="spline" begin="-1.11s"></animate>
  <animate attributeName="opacity" repeatCount="indefinite" dur="2.22s" values="1;0" keyTimes="0;1" keySplines="0.2 0 0.8 1" calcMode="spline" begin="-1.11s"></animate>
</circle>
<!-- [ldio] generated by https://loading.io/ --></svg>